^C:\PROJECT_TEMPLATE\PROJECT_TEMPLATE\SOURCE\DATACONVERTER\DATACONVERTER.CPP
C:\PROJECT_TEMPLATE\PROJECT_TEMPLATE\SOURCE\DATACONVERTER\DEBUG\VC100.PDB
^C:\PROJECT_TEMPLATE\PROJECT_TEMPLATE\SOURCE\DATACONVERTER\ENTITY.CPP
C:\PROJECT_TEMPLATE\PROJECT_TEMPLATE\SOURCE\DATACONVERTER\DEBUG\VC100.PDB
^C:\PROJECT_TEMPLATE\PROJECT_TEMPLATE\SOURCE\DATACONVERTER\EXTRAMATH.CPP
C:\PROJECT_TEMPLATE\PROJECT_TEMPLATE\SOURCE\DATACONVERTER\DEBUG\VC100.PDB
^C:\PROJECT_TEMPLATE\PROJECT_TEMPLATE\SOURCE\DATACONVERTER\ROUNDEARTHPOSITIONIMPLENTATION.CPP
C:\PROJECT_TEMPLATE\PROJECT_TEMPLATE\SOURCE\DATACONVERTER\DEBUG\VC100.PDB
