^C:\HAVOKARPROJECT\HAVAR\SOURCE\DATACONVERTER\DATACONVERTER.CPP|C:\HAVOKARPROJECT\HAVAR\SOURCE\DATACONVERTER\ENTITY.CPP
C:\HAVOKARPROJECT\HAVAR\SOURCE\DATACONVERTER\RELEASE\ENTITY.OBJ
C:\HAVOKARPROJECT\HAVAR\SOURCE\DATACONVERTER\RELEASE\DATACONVERTER.OBJ
^C:\HAVOKARPROJECT\HAVAR\SOURCE\DATACONVERTER\DATACONVERTER.CPP
C:\HAVOKARPROJECT\HAVAR\SOURCE\DATACONVERTER\RELEASE\VC100.PDB
^C:\HAVOKARPROJECT\HAVAR\SOURCE\DATACONVERTER\ENTITY.CPP
C:\HAVOKARPROJECT\HAVAR\SOURCE\DATACONVERTER\RELEASE\VC100.PDB
